<?xml version="1.0" encoding="UTF-8" standalone="no"?>
<!-- Created with Inkscape (http://www.inkscape.org/) -->

<svg
   xmlns:dc="http://purl.org/dc/elements/1.1/"
   xmlns:cc="http://creativecommons.org/ns#"
   xmlns:rdf="http://www.w3.org/1999/02/22-rdf-syntax-ns#"
   xmlns:svg="http://www.w3.org/2000/svg"
   xmlns="http://www.w3.org/2000/svg"
   xmlns:sodipodi="http://sodipodi.sourceforge.net/DTD/sodipodi-0.dtd"
   xmlns:inkscape="http://www.inkscape.org/namespaces/inkscape"
   width="148mm"
   height="105mm"
   viewBox="0 0 0.0055937006 0.003968504"
   version="1.1"
   id="svg8"
   inkscape:export-filename="/home/fanchovitch/image.png"
   inkscape:export-xdpi="96"
   inkscape:export-ydpi="96"
   sodipodi:docname="dispositif-audio_shema.svg"
   inkscape:version="0.92.4 (5da689c313, 2019-01-14)">
  <defs
     id="defs2">
    <filter
       inkscape:collect="always"
       style="color-interpolation-filters:sRGB"
       id="filter1325"
       x="-0.0036006247"
       width="1.0072012"
       y="-0.0035993755"
       height="1.0071988">
      <feGaussianBlur
         inkscape:collect="always"
         stdDeviation="5.7678465e-06"
         id="feGaussianBlur1327" />
    </filter>
  </defs>
  <sodipodi:namedview
     id="base"
     pagecolor="#ffffff"
     bordercolor="#666666"
     borderopacity="1.0"
     inkscape:pageopacity="0.0"
     inkscape:pageshadow="2"
     inkscape:zoom="1.4142136"
     inkscape:cx="264.87463"
     inkscape:cy="148.16529"
     inkscape:document-units="px"
     inkscape:current-layer="layer2"
     showgrid="false"
     scale-x="1e-05"
     inkscape:snap-to-guides="true"
     inkscape:snap-grids="false"
     inkscape:snap-others="true"
     inkscape:snap-global="true"
     inkscape:window-width="1920"
     inkscape:window-height="1010"
     inkscape:window-x="1920"
     inkscape:window-y="0"
     inkscape:window-maximized="1"
     showguides="true"
     inkscape:guide-bbox="true">
    <inkscape:grid
       type="xygrid"
       id="grid815" />
    <sodipodi:guide
       position="0.0013875,0.001945"
       orientation="1,0"
       id="guide1464"
       inkscape:locked="false" />
    <sodipodi:guide
       position="0.002585,0.001085"
       orientation="0,1"
       id="guide1504"
       inkscape:locked="false" />
  </sodipodi:namedview>
  <metadata
     id="metadata5">
    <rdf:RDF>
      <cc:Work
         rdf:about="">
        <dc:format>image/svg+xml</dc:format>
        <dc:type
           rdf:resource="http://purl.org/dc/dcmitype/StillImage" />
        <dc:title></dc:title>
      </cc:Work>
    </rdf:RDF>
  </metadata>
  <g
     inkscape:label="Calque 1"
     inkscape:groupmode="layer"
     id="layer1"
     transform="translate(0,-192)"
     style="display:inline">
    <g
       id="g899-5"
       transform="matrix(-0.51374566,0,0,-0.50386219,0.00240737,288.7448)"
       inkscape:transform-center-x="3.3922739e-06"
       inkscape:transform-center-y="2.7110891e-05"
       style="stroke-width:0.00000867;stroke-miterlimit:4;stroke-dasharray:none">
      <rect
         y="192.00456"
         x="0.00315"
         height="0.00049289159"
         width="0.00050000002"
         id="rect893-3"
         style="opacity:1;fill:#ffffff;fill-opacity:1;fill-rule:evenodd;stroke:#000000;stroke-width:0.00000867;stroke-miterlimit:4;stroke-dasharray:none;stroke-dashoffset:0;stroke-opacity:1" />
      <circle
         r="0.000225"
         cy="192.00481"
         cx="0.0033964287"
         id="circle895-5"
         style="opacity:1;fill:#ffffff;fill-opacity:1;fill-rule:evenodd;stroke:#000000;stroke-width:0.00000867;stroke-miterlimit:4;stroke-dasharray:none;stroke-dashoffset:0;stroke-opacity:1" />
      <circle
         r="7.9464284e-05"
         cy="192.00481"
         cx="0.0033978573"
         id="circle897-6"
         style="opacity:1;fill:#ffffff;fill-opacity:1;fill-rule:evenodd;stroke:#000000;stroke-width:0.00000867;stroke-miterlimit:4;stroke-dasharray:none;stroke-dashoffset:0;stroke-opacity:1" />
    </g>
    <g
       inkscape:transform-center-y="-8.9002024e-06"
       inkscape:transform-center-x="3.3654771e-05"
       transform="matrix(0,-0.87335753,0.89048881,0,-170.97747,192.0048)"
       id="g859-2"
       style="stroke-width:0.000005;stroke-miterlimit:4;stroke-dasharray:none">
      <rect
         style="opacity:1;fill:#ffffff;fill-opacity:1;fill-rule:evenodd;stroke:#000000;stroke-width:0.000005;stroke-miterlimit:4;stroke-dasharray:none;stroke-dashoffset:0;stroke-opacity:1"
         id="rect853-9"
         width="0.00050000002"
         height="0.00049289159"
         x="0.00315"
         y="192.00456" />
      <circle
         style="opacity:1;fill:#ffffff;fill-opacity:1;fill-rule:evenodd;stroke:#000000;stroke-width:0.000005;stroke-miterlimit:4;stroke-dasharray:none;stroke-dashoffset:0;stroke-opacity:1"
         id="circle855-1"
         cx="0.0033964287"
         cy="192.00481"
         r="0.000225" />
      <circle
         style="opacity:1;fill:#ffffff;fill-opacity:1;fill-rule:evenodd;stroke:#000000;stroke-width:0.000005;stroke-miterlimit:4;stroke-dasharray:none;stroke-dashoffset:0;stroke-opacity:1"
         id="circle857-2"
         cx="0.0033978573"
         cy="192.00481"
         r="7.9464284e-05" />
    </g>
    <g
       id="g990-7"
       transform="matrix(-0.73630889,-0.15724333,0.15644548,-0.74001615,-30.03517,334.08626)"
       inkscape:transform-center-x="8.2499449e-05"
       inkscape:transform-center-y="0.00070168538"
       style="stroke-width:0.00000584;stroke-miterlimit:4;stroke-dasharray:none">
      <path
         transform="matrix(1e-5,0,0,1e-5,0.00226274,192.00072)"
         d="m 59.093926,140.77673 -18.560904,3.86416 -12.626907,-14.14214 5.933996,-18.00629 18.560903,-3.86415 12.626907,14.14213 z"
         inkscape:randomized="0"
         inkscape:rounded="0"
         inkscape:flatsided="true"
         sodipodi:arg2="1.3655404"
         sodipodi:arg1="0.8419416"
         sodipodi:r2="16.418863"
         sodipodi:r1="18.958872"
         sodipodi:cy="126.6346"
         sodipodi:cx="46.467018"
         sodipodi:sides="6"
         id="path984-0"
         style="opacity:1;fill:#ffffff;fill-opacity:1;fill-rule:evenodd;stroke:#000000;stroke-width:0.58430666;stroke-miterlimit:4;stroke-dasharray:none;stroke-dashoffset:0;stroke-opacity:1"
         sodipodi:type="star" />
      <circle
         r="9.6978263e-05"
         cy="-135.76398"
         cx="-135.76784"
         id="circle986-9"
         style="opacity:1;fill:#ffffff;fill-opacity:1;fill-rule:evenodd;stroke:#000000;stroke-width:0.00000584;stroke-miterlimit:4;stroke-dasharray:none;stroke-dashoffset:0;stroke-opacity:1"
         transform="rotate(-135)" />
      <circle
         r="3.4250261e-05"
         cy="-135.76398"
         cx="-135.76784"
         id="circle988-3"
         style="opacity:1;fill:#ffffff;fill-opacity:1;fill-rule:evenodd;stroke:#000000;stroke-width:0.00000584;stroke-miterlimit:4;stroke-dasharray:none;stroke-dashoffset:0;stroke-opacity:1"
         transform="rotate(-135)" />
    </g>
    <text
       xml:space="preserve"
       style="font-style:normal;font-weight:normal;font-size:0.00007055px;line-height:1.25;font-family:sans-serif;letter-spacing:0px;word-spacing:0px;fill:#000000;fill-opacity:1;stroke:none;stroke-width:0.00000441;stroke-miterlimit:4;stroke-dasharray:none"
       x="0.00048673493"
       y="193.875"
       id="text1066"
       transform="scale(1.0097601,0.99033424)"><tspan
         sodipodi:role="line"
         id="tspan1064"
         x="0.00048673493"
         y="193.875"
         style="stroke-width:0.00000441;stroke-miterlimit:4;stroke-dasharray:none">enceintes</tspan></text>
    <text
       id="text1070"
       y="193.87544"
       x="0.00035332076"
       style="font-style:normal;font-weight:normal;font-size:0.00007055px;line-height:1.25;font-family:sans-serif;letter-spacing:0px;word-spacing:0px;fill:#000000;fill-opacity:1;stroke:none;stroke-width:0.00000441;stroke-miterlimit:4;stroke-dasharray:none"
       xml:space="preserve"
       transform="scale(1.0097601,0.99033424)"><tspan
         style="stroke-width:0.00000441;stroke-miterlimit:4;stroke-dasharray:none"
         y="193.87544"
         x="0.00035332076"
         id="tspan1068"
         sodipodi:role="line">douches sonores</tspan></text>
    <text
       id="text1074"
       y="193.87611"
       x="0.00042610554"
       style="font-style:normal;font-weight:normal;font-size:0.00007055px;line-height:1.25;font-family:sans-serif;letter-spacing:0px;word-spacing:0px;fill:#000000;fill-opacity:1;stroke:none;stroke-width:0.00000441;stroke-miterlimit:4;stroke-dasharray:none"
       xml:space="preserve"
       transform="scale(1.0097601,0.99033424)"><tspan
         style="stroke-width:0.00000441;stroke-miterlimit:4;stroke-dasharray:none"
         y="193.87611"
         x="0.00042610554"
         sodipodi:role="line"
         id="tspan1076">caisson basse</tspan></text>
    <g
       id="g1101"
       transform="matrix(0.89048881,0,0,0.87335753,-3.5495589e-4,24.316841)"
       style="stroke-width:0.000005;stroke-miterlimit:4;stroke-dasharray:none">
      <rect
         y="192.00092"
         x="0.00095000002"
         height="0.00015038221"
         width="0.00040000008"
         id="rect1080"
         style="opacity:1;fill:#ffffff;fill-opacity:1;fill-rule:evenodd;stroke:#000000;stroke-width:0.000005;stroke-miterlimit:4;stroke-dasharray:none;stroke-dashoffset:0;stroke-opacity:1" />
      <circle
         style="opacity:1;fill:#ffffff;fill-opacity:1;fill-rule:evenodd;stroke:#000000;stroke-width:0.000005;stroke-miterlimit:4;stroke-dasharray:none;stroke-dashoffset:0;stroke-opacity:1"
         id="circle1088"
         cx="0.001025"
         cy="192.00099"
         r="2.4999999e-05" />
      <circle
         r="2.4999999e-05"
         cy="192.00099"
         cx="0.0011050001"
         id="circle1090"
         style="opacity:1;fill:#ffffff;fill-opacity:1;fill-rule:evenodd;stroke:#000000;stroke-width:0.000005;stroke-miterlimit:4;stroke-dasharray:none;stroke-dashoffset:0;stroke-opacity:1" />
      <circle
         style="opacity:1;fill:#ffffff;fill-opacity:1;fill-rule:evenodd;stroke:#000000;stroke-width:0.000005;stroke-miterlimit:4;stroke-dasharray:none;stroke-dashoffset:0;stroke-opacity:1"
         id="circle1092"
         cx="0.0011850003"
         cy="192.00099"
         r="2.4999999e-05" />
      <circle
         r="2.4999999e-05"
         cy="192.00099"
         cx="0.0012650004"
         id="circle1094"
         style="opacity:1;fill:#ffffff;fill-opacity:1;fill-rule:evenodd;stroke:#000000;stroke-width:0.000005;stroke-miterlimit:4;stroke-dasharray:none;stroke-dashoffset:0;stroke-opacity:1" />
    </g>
    <text
       xml:space="preserve"
       style="font-style:normal;font-weight:normal;font-size:0.00007055px;line-height:1.25;font-family:sans-serif;letter-spacing:0px;word-spacing:0px;fill:#000000;fill-opacity:1;stroke:none;stroke-width:0.00000441;stroke-miterlimit:4;stroke-dasharray:none"
       x="0.00043834097"
       y="193.87648"
       id="text1105"
       transform="scale(1.0097601,0.99033424)"><tspan
         sodipodi:role="line"
         id="tspan1103"
         x="0.00043834097"
         y="193.87648"
         style="stroke-width:0.00000441;stroke-miterlimit:4;stroke-dasharray:none">carte son 4ch</tspan></text>
    <g
       id="g1163"
       transform="matrix(0.89048881,0,0,0.87335753,-3.5761041e-4,24.317032)"
       style="stroke-width:0.000005;stroke-miterlimit:4;stroke-dasharray:none">
      <rect
         y="192.00111"
         x="0.00095000002"
         height="0.00025000001"
         width="0.00039999999"
         id="rect1137"
         style="opacity:1;fill:#ffffff;fill-opacity:1;fill-rule:evenodd;stroke:#000000;stroke-width:0.000005;stroke-miterlimit:4;stroke-dasharray:none;stroke-dashoffset:0;stroke-opacity:1" />
      <rect
         inkscape:transform-center-y="1.4768289e-05"
         inkscape:transform-center-x="-1.7883897e-06"
         y="192.00136"
         x="0.00094970036"
         height="4.288628e-05"
         width="0.0004005993"
         id="rect1139"
         style="opacity:1;fill:#ffffff;fill-opacity:1;fill-rule:evenodd;stroke:#000000;stroke-width:0.000005;stroke-miterlimit:4;stroke-dasharray:none;stroke-dashoffset:0;stroke-opacity:1" />
      <rect
         y="192.00113"
         x="0.00096970767"
         height="0.00020798323"
         width="0.0003542795"
         id="rect1137-8"
         style="opacity:1;fill:#ffffff;fill-opacity:1;fill-rule:evenodd;stroke:#000000;stroke-width:0.000005;stroke-miterlimit:4;stroke-dasharray:none;stroke-dashoffset:0;stroke-opacity:1" />
    </g>
    <text
       id="text1158"
       y="193.87697"
       x="0.00046720789"
       style="font-style:normal;font-weight:normal;font-size:0.00007055px;line-height:1.25;font-family:sans-serif;letter-spacing:0px;word-spacing:0px;fill:#000000;fill-opacity:1;stroke:none;stroke-width:0.00000441;stroke-miterlimit:4;stroke-dasharray:none"
       xml:space="preserve"
       transform="scale(1.0097601,0.99033424)"><tspan
         style="stroke-width:0.00000441;stroke-miterlimit:4;stroke-dasharray:none"
         y="193.87697"
         x="0.00046720789"
         id="tspan1156"
         sodipodi:role="line">ordinateur </tspan></text>
    <g
       transform="matrix(0.78673595,0,0,0.77160068,0.00260943,43.852718)"
       id="g1171"
       style="stroke-width:0.000005;stroke-miterlimit:4;stroke-dasharray:none">
      <rect
         style="opacity:1;fill:#ffffff;fill-opacity:1;fill-rule:evenodd;stroke:#000000;stroke-width:0.000005;stroke-miterlimit:4;stroke-dasharray:none;stroke-dashoffset:0;stroke-opacity:1"
         id="rect1165"
         width="0.00039999999"
         height="0.00025000001"
         x="0.00095000002"
         y="192.00111" />
      <rect
         style="opacity:1;fill:#ffffff;fill-opacity:1;fill-rule:evenodd;stroke:#000000;stroke-width:0.000005;stroke-miterlimit:4;stroke-dasharray:none;stroke-dashoffset:0;stroke-opacity:1"
         id="rect1167"
         width="0.0004005993"
         height="4.288628e-05"
         x="0.00094970036"
         y="192.00136"
         inkscape:transform-center-x="-1.7883897e-06"
         inkscape:transform-center-y="1.4768289e-05" />
      <rect
         style="opacity:1;fill:#ffffff;fill-opacity:1;fill-rule:evenodd;stroke:#000000;stroke-width:0.000005;stroke-miterlimit:4;stroke-dasharray:none;stroke-dashoffset:0;stroke-opacity:1"
         id="rect1169"
         width="0.0003542795"
         height="0.00020798323"
         x="0.00096970767"
         y="192.00113" />
    </g>
    <g
       id="g1101-6"
       transform="matrix(0.78673595,0,0,0.77160068,0.00260943,43.853211)"
       style="stroke-width:0.000005;stroke-miterlimit:4;stroke-dasharray:none">
      <rect
         y="192.00092"
         x="0.00095000002"
         height="0.00015038221"
         width="0.00040000008"
         id="rect1080-0"
         style="opacity:1;fill:#ffffff;fill-opacity:1;fill-rule:evenodd;stroke:#000000;stroke-width:0.000005;stroke-miterlimit:4;stroke-dasharray:none;stroke-dashoffset:0;stroke-opacity:1" />
      <circle
         style="opacity:1;fill:#ffffff;fill-opacity:1;fill-rule:evenodd;stroke:#000000;stroke-width:0.000005;stroke-miterlimit:4;stroke-dasharray:none;stroke-dashoffset:0;stroke-opacity:1"
         id="circle1088-6"
         cx="0.001025"
         cy="192.00099"
         r="2.4999999e-05" />
      <circle
         r="2.4999999e-05"
         cy="192.00099"
         cx="0.0011050001"
         id="circle1090-2"
         style="opacity:1;fill:#ffffff;fill-opacity:1;fill-rule:evenodd;stroke:#000000;stroke-width:0.000005;stroke-miterlimit:4;stroke-dasharray:none;stroke-dashoffset:0;stroke-opacity:1" />
      <circle
         style="opacity:1;fill:#ffffff;fill-opacity:1;fill-rule:evenodd;stroke:#000000;stroke-width:0.000005;stroke-miterlimit:4;stroke-dasharray:none;stroke-dashoffset:0;stroke-opacity:1"
         id="circle1092-6"
         cx="0.0011850003"
         cy="192.00099"
         r="2.4999999e-05" />
      <circle
         r="2.4999999e-05"
         cy="192.00099"
         cx="0.0012650004"
         id="circle1094-1"
         style="opacity:1;fill:#ffffff;fill-opacity:1;fill-rule:evenodd;stroke:#000000;stroke-width:0.000005;stroke-miterlimit:4;stroke-dasharray:none;stroke-dashoffset:0;stroke-opacity:1" />
    </g>
    <g
       id="g1372"
       style="fill:none;stroke:#ff6400;stroke-width:0.00001;stroke-miterlimit:4;stroke-dasharray:none;stroke-opacity:1"
       transform="matrix(0.78673595,0,0,0.77160068,6.5833136e-4,43.853258)">
      <path
         inkscape:connector-curvature="0"
         id="path1173-2"
         d="m 0.00358259,192.001 8.9e-7,1.6e-4"
         style="fill:none;stroke:#ff6400;stroke-width:0.00001;stroke-linecap:butt;stroke-linejoin:miter;stroke-miterlimit:4;stroke-dasharray:none;stroke-opacity:1" />
      <path
         style="fill:none;stroke:#ff6400;stroke-width:0.00001;stroke-linecap:butt;stroke-linejoin:miter;stroke-miterlimit:4;stroke-dasharray:none;stroke-opacity:1"
         d="m 0.00366911,192.001 8.9e-7,1.6e-4"
         id="path1222"
         inkscape:connector-curvature="0" />
      <path
         inkscape:connector-curvature="0"
         id="path1228"
         d="m 0.00345,192.00092 h -5e-5 v -7e-4 H 0.00206"
         style="fill:none;fill-opacity:1;stroke:#ff6400;stroke-width:0.00001;stroke-linecap:butt;stroke-linejoin:miter;stroke-miterlimit:4;stroke-dasharray:none;stroke-opacity:1" />
      <path
         style="fill:none;fill-opacity:1;stroke:#ff6400;stroke-width:0.00001;stroke-linecap:butt;stroke-linejoin:miter;stroke-miterlimit:4;stroke-dasharray:none;stroke-opacity:1"
         d="m 0.0038,192.00092 h 5.036e-5 v -7e-4 H 0.0052"
         id="path1230"
         inkscape:connector-curvature="0" />
      <path
         inkscape:connector-curvature="0"
         id="path1247"
         d="m 0.0054,192.00357 v -0.002 H 0.00385"
         style="fill:none;fill-opacity:1;stroke:#ff6400;stroke-width:0.00001;stroke-linecap:butt;stroke-linejoin:miter;stroke-miterlimit:4;stroke-dasharray:none;stroke-opacity:1" />
      <path
         style="fill:none;fill-opacity:1;stroke:#ff6400;stroke-width:0.00001;stroke-linecap:butt;stroke-linejoin:miter;stroke-miterlimit:4;stroke-dasharray:none;stroke-opacity:1"
         d="m 0.00185599,192.00357 v -0.002 h 0.00155"
         id="path1249"
         inkscape:connector-curvature="0" />
    </g>
    <path
       style="fill:none;stroke:#8c00aa;stroke-width:0.00000779;stroke-linecap:butt;stroke-linejoin:miter;stroke-miterlimit:4;stroke-dasharray:none;stroke-opacity:1"
       d="m 0.00351419,192.00112 6.9e-7,1.4e-4"
       id="path1173"
       inkscape:connector-curvature="0" />
    <path
       style="fill:none;stroke:#ff6400;stroke-width:0.00000779;stroke-linecap:butt;stroke-linejoin:miter;stroke-miterlimit:4;stroke-dasharray:none;stroke-opacity:1"
       d="m 0.00270384,192.00211 h 1.5735e-4"
       id="path1303"
       inkscape:connector-curvature="0" />
    <path
       inkscape:connector-curvature="0"
       id="path1305"
       d="m 0.00415144,192.00211 h 1.5735e-4"
       style="fill:none;stroke:#ff6400;stroke-width:0.00000779;stroke-linecap:butt;stroke-linejoin:miter;stroke-miterlimit:4;stroke-dasharray:none;stroke-opacity:1" />
    <path
       style="fill:none;stroke:#ff6400;stroke-width:0.00000779;stroke-linecap:butt;stroke-linejoin:miter;stroke-miterlimit:4;stroke-dasharray:none;stroke-opacity:1"
       d="m 0.00351079,192.00286 v -1.5e-4"
       id="path1307"
       inkscape:connector-curvature="0" />
    <g
       transform="matrix(0.78673595,0,0,0.77160068,0.00260943,43.854662)"
       id="g1301"
       style="stroke-width:0.000005;stroke-miterlimit:4;stroke-dasharray:none">
      <rect
         style="opacity:1;fill:#ffffff;fill-opacity:1;fill-rule:evenodd;stroke:#000000;stroke-width:0.000005;stroke-miterlimit:4;stroke-dasharray:none;stroke-dashoffset:0;stroke-opacity:1"
         id="rect1295"
         width="0.00039999999"
         height="0.00025000001"
         x="0.00095000002"
         y="192.00111" />
      <rect
         style="opacity:1;fill:#ffffff;fill-opacity:1;fill-rule:evenodd;stroke:#000000;stroke-width:0.000005;stroke-miterlimit:4;stroke-dasharray:none;stroke-dashoffset:0;stroke-opacity:1"
         id="rect1297"
         width="0.0004005993"
         height="4.288628e-05"
         x="0.00094970036"
         y="192.00136"
         inkscape:transform-center-x="-1.7883897e-06"
         inkscape:transform-center-y="1.4768289e-05" />
      <rect
         style="opacity:1;fill:#ffffff;fill-opacity:1;fill-rule:evenodd;stroke:#000000;stroke-width:0.000005;stroke-miterlimit:4;stroke-dasharray:none;stroke-dashoffset:0;stroke-opacity:1"
         id="rect1299"
         width="0.0003542795"
         height="0.00020798323"
         x="0.00096970767"
         y="192.00113" />
    </g>
    <g
       transform="matrix(0.78673595,0,0,0.77160068,0.00350631,43.853829)"
       id="g1171-0"
       style="stroke-width:0.000005;stroke-miterlimit:4;stroke-dasharray:none">
      <rect
         style="opacity:1;fill:#ffffff;fill-opacity:1;fill-rule:evenodd;stroke:#000000;stroke-width:0.000005;stroke-miterlimit:4;stroke-dasharray:none;stroke-dashoffset:0;stroke-opacity:1"
         id="rect1165-2"
         width="0.00039999999"
         height="0.00025000001"
         x="0.00095000002"
         y="192.00111" />
      <rect
         style="opacity:1;fill:#ffffff;fill-opacity:1;fill-rule:evenodd;stroke:#000000;stroke-width:0.000005;stroke-miterlimit:4;stroke-dasharray:none;stroke-dashoffset:0;stroke-opacity:1"
         id="rect1167-3"
         width="0.0004005993"
         height="4.288628e-05"
         x="0.00094970036"
         y="192.00136"
         inkscape:transform-center-x="-1.7883897e-06"
         inkscape:transform-center-y="1.4768289e-05" />
      <rect
         style="opacity:1;fill:#ffffff;fill-opacity:1;fill-rule:evenodd;stroke:#000000;stroke-width:0.000005;stroke-miterlimit:4;stroke-dasharray:none;stroke-dashoffset:0;stroke-opacity:1"
         id="rect1169-7"
         width="0.0003542795"
         height="0.00020798323"
         x="0.00096970767"
         y="192.00113" />
    </g>
    <g
       id="g962"
       transform="matrix(-0.74842263,0.23785656,-0.24252221,-0.73402443,46.5703,332.93614)"
       inkscape:transform-center-x="-0.00029614273"
       inkscape:transform-center-y="0.00068043657"
       style="stroke-width:0.000005;stroke-miterlimit:4;stroke-dasharray:none">
      <path
         transform="matrix(1e-5,0,0,1e-5,0.00226274,192.00072)"
         d="m 59.093926,140.77673 -18.560904,3.86416 -12.626907,-14.14214 5.933996,-18.00629 18.560903,-3.86415 12.626907,14.14213 z"
         inkscape:randomized="0"
         inkscape:rounded="0"
         inkscape:flatsided="true"
         sodipodi:arg2="1.3655404"
         sodipodi:arg1="0.8419416"
         sodipodi:r2="16.418863"
         sodipodi:r1="18.958872"
         sodipodi:cy="126.6346"
         sodipodi:cx="46.467018"
         sodipodi:sides="6"
         id="path933"
         style="opacity:1;fill:#ffffff;fill-opacity:1;fill-rule:evenodd;stroke:#000000;stroke-width:0.5;stroke-miterlimit:4;stroke-dasharray:none;stroke-dashoffset:0;stroke-opacity:1"
         sodipodi:type="star" />
      <circle
         r="9.6978263e-05"
         cy="-135.76398"
         cx="-135.76784"
         id="path831-6"
         style="opacity:1;fill:#ffffff;fill-opacity:1;fill-rule:evenodd;stroke:#000000;stroke-width:0.000005;stroke-miterlimit:4;stroke-dasharray:none;stroke-dashoffset:0;stroke-opacity:1"
         transform="rotate(-135)" />
      <circle
         r="3.4250261e-05"
         cy="-135.76398"
         cx="-135.76784"
         id="path831-3-7"
         style="opacity:1;fill:#ffffff;fill-opacity:1;fill-rule:evenodd;stroke:#000000;stroke-width:0.000005;stroke-miterlimit:4;stroke-dasharray:none;stroke-dashoffset:0;stroke-opacity:1"
         transform="rotate(-135)" />
    </g>
    <g
       id="g990"
       transform="matrix(-0.76951199,-0.16057193,0.16372162,-0.75470807,-31.429782,336.90802)"
       inkscape:transform-center-x="8.748083e-05"
       inkscape:transform-center-y="0.00072195423"
       style="stroke-width:0.000005;stroke-miterlimit:4;stroke-dasharray:none">
      <path
         transform="matrix(1e-5,0,0,1e-5,0.00226274,192.00072)"
         d="m 59.093926,140.77673 -18.560904,3.86416 -12.626907,-14.14214 5.933996,-18.00629 18.560903,-3.86415 12.626907,14.14213 z"
         inkscape:randomized="0"
         inkscape:rounded="0"
         inkscape:flatsided="true"
         sodipodi:arg2="1.3655404"
         sodipodi:arg1="0.8419416"
         sodipodi:r2="16.418863"
         sodipodi:r1="18.958872"
         sodipodi:cy="126.6346"
         sodipodi:cx="46.467018"
         sodipodi:sides="6"
         id="path984"
         style="opacity:1;fill:#ffffff;fill-opacity:1;fill-rule:evenodd;stroke:#000000;stroke-width:0.5;stroke-miterlimit:4;stroke-dasharray:none;stroke-dashoffset:0;stroke-opacity:1"
         sodipodi:type="star" />
      <circle
         r="9.6978263e-05"
         cy="-135.76398"
         cx="-135.76784"
         id="circle986"
         style="opacity:1;fill:#ffffff;fill-opacity:1;fill-rule:evenodd;stroke:#000000;stroke-width:0.000005;stroke-miterlimit:4;stroke-dasharray:none;stroke-dashoffset:0;stroke-opacity:1"
         transform="rotate(-135)" />
      <circle
         r="3.4250261e-05"
         cy="-135.76398"
         cx="-135.76784"
         id="circle988"
         style="opacity:1;fill:#ffffff;fill-opacity:1;fill-rule:evenodd;stroke:#000000;stroke-width:0.000005;stroke-miterlimit:4;stroke-dasharray:none;stroke-dashoffset:0;stroke-opacity:1"
         transform="rotate(-135)" />
    </g>
    <g
       inkscape:transform-center-y="0.00072288287"
       inkscape:transform-center-x="8.4927496e-05"
       transform="matrix(-0.76953638,-0.16045945,0.16360693,-0.75473199,-31.406744,336.91261)"
       id="g982"
       style="stroke-width:0.000005;stroke-miterlimit:4;stroke-dasharray:none">
      <path
         sodipodi:type="star"
         style="opacity:1;fill:#ffffff;fill-opacity:1;fill-rule:evenodd;stroke:#000000;stroke-width:0.5;stroke-miterlimit:4;stroke-dasharray:none;stroke-dashoffset:0;stroke-opacity:1"
         id="path976"
         sodipodi:sides="6"
         sodipodi:cx="46.467018"
         sodipodi:cy="126.6346"
         sodipodi:r1="18.958872"
         sodipodi:r2="16.418863"
         sodipodi:arg1="0.8419416"
         sodipodi:arg2="1.3655404"
         inkscape:flatsided="true"
         inkscape:rounded="0"
         inkscape:randomized="0"
         d="m 59.093926,140.77673 -18.560904,3.86416 -12.626907,-14.14214 5.933996,-18.00629 18.560903,-3.86415 12.626907,14.14213 z"
         transform="matrix(1e-5,0,0,1e-5,0.00226274,192.00072)" />
      <circle
         transform="rotate(-135)"
         style="opacity:1;fill:#ffffff;fill-opacity:1;fill-rule:evenodd;stroke:#000000;stroke-width:0.000005;stroke-miterlimit:4;stroke-dasharray:none;stroke-dashoffset:0;stroke-opacity:1"
         id="circle978"
         cx="-135.76784"
         cy="-135.76398"
         r="9.6978263e-05" />
      <circle
         transform="rotate(-135)"
         style="opacity:1;fill:#ffffff;fill-opacity:1;fill-rule:evenodd;stroke:#000000;stroke-width:0.000005;stroke-miterlimit:4;stroke-dasharray:none;stroke-dashoffset:0;stroke-opacity:1"
         id="circle980"
         cx="-135.76784"
         cy="-135.76398"
         r="3.4250261e-05" />
    </g>
    <g
       inkscape:transform-center-y="-1.8836699e-05"
       inkscape:transform-center-x="3.334581e-05"
       transform="matrix(0,-0.77160068,0.78673595,0,-151.05357,192.00429)"
       id="g859"
       style="stroke-width:0.000005;stroke-miterlimit:4;stroke-dasharray:none">
      <rect
         style="opacity:1;fill:#ffffff;fill-opacity:1;fill-rule:evenodd;stroke:#000000;stroke-width:0.000005;stroke-miterlimit:4;stroke-dasharray:none;stroke-dashoffset:0;stroke-opacity:1"
         id="rect853"
         width="0.00050000002"
         height="0.00049289159"
         x="0.00315"
         y="192.00456" />
      <circle
         style="opacity:1;fill:#ffffff;fill-opacity:1;fill-rule:evenodd;stroke:#000000;stroke-width:0.000005;stroke-miterlimit:4;stroke-dasharray:none;stroke-dashoffset:0;stroke-opacity:1"
         id="circle855"
         cx="0.0033964287"
         cy="192.00481"
         r="0.000225" />
      <circle
         style="opacity:1;fill:#ffffff;fill-opacity:1;fill-rule:evenodd;stroke:#000000;stroke-width:0.000005;stroke-miterlimit:4;stroke-dasharray:none;stroke-dashoffset:0;stroke-opacity:1"
         id="circle857"
         cx="0.0033978573"
         cy="192.00481"
         r="7.9464284e-05" />
    </g>
    <path
       inkscape:connector-curvature="0"
       id="path1173-2-9"
       d="M 4.6745487e-4,192.00319 H 8.7907e-4"
       style="fill:none;stroke:#ff6400;stroke-width:0.00000882;stroke-linecap:butt;stroke-linejoin:miter;stroke-miterlimit:4;stroke-dasharray:none;stroke-opacity:1" />
    <text
       xml:space="preserve"
       style="font-style:normal;font-weight:normal;font-size:0.00007055px;line-height:1.25;font-family:sans-serif;letter-spacing:0px;word-spacing:0px;fill:#000000;fill-opacity:1;stroke:none;stroke-width:0.00000441;stroke-miterlimit:4;stroke-dasharray:none"
       x="0.00044302215"
       y="193.87727"
       id="text1406"
       transform="scale(1.0097601,0.99033424)"><tspan
         sodipodi:role="line"
         id="tspan1404"
         x="0.00044302215"
         y="193.87727"
         style="stroke-width:0.00000441;stroke-miterlimit:4;stroke-dasharray:none">cables audio </tspan></text>
    <g
       id="g1281"
       transform="matrix(0.78673595,0,0,0.77160068,0.00166535,43.853829)"
       style="stroke-width:0.000005;stroke-miterlimit:4;stroke-dasharray:none">
      <rect
         y="192.00111"
         x="0.00095000002"
         height="0.00025000001"
         width="0.00039999999"
         id="rect1275"
         style="opacity:1;fill:#ffffff;fill-opacity:1;fill-rule:evenodd;stroke:#000000;stroke-width:0.000005;stroke-miterlimit:4;stroke-dasharray:none;stroke-dashoffset:0;stroke-opacity:1" />
      <rect
         inkscape:transform-center-y="1.4768289e-05"
         inkscape:transform-center-x="-1.7883897e-06"
         y="192.00136"
         x="0.00094970036"
         height="4.288628e-05"
         width="0.0004005993"
         id="rect1277"
         style="opacity:1;fill:#ffffff;fill-opacity:1;fill-rule:evenodd;stroke:#000000;stroke-width:0.000005;stroke-miterlimit:4;stroke-dasharray:none;stroke-dashoffset:0;stroke-opacity:1" />
      <rect
         y="192.00113"
         x="0.00096970767"
         height="0.00020798323"
         width="0.0003542795"
         id="rect1279"
         style="opacity:1;fill:#ffffff;fill-opacity:1;fill-rule:evenodd;stroke:#000000;stroke-width:0.000005;stroke-miterlimit:4;stroke-dasharray:none;stroke-dashoffset:0;stroke-opacity:1" />
    </g>
    <path
       style="fill:#000000;fill-opacity:0;stroke:#8900f4;stroke-width:0.00000882;stroke-linecap:butt;stroke-linejoin:miter;stroke-miterlimit:4;stroke-dasharray:none;stroke-opacity:1"
       d="M 4.808122e-4,192.00346 H 8.9243e-4"
       id="path1414"
       inkscape:connector-curvature="0" />
    <text
       id="text1418"
       y="193.87755"
       x="0.00047388804"
       style="font-style:normal;font-weight:normal;font-size:0.00007055px;line-height:1.25;font-family:sans-serif;letter-spacing:0px;word-spacing:0px;fill:#000000;fill-opacity:1;stroke:none;stroke-width:0.00000441;stroke-miterlimit:4;stroke-dasharray:none"
       xml:space="preserve"
       transform="scale(1.0097601,0.99033424)"><tspan
         style="stroke-width:0.00000441;stroke-miterlimit:4;stroke-dasharray:none"
         y="193.87755"
         x="0.00047388804"
         id="tspan1416"
         sodipodi:role="line">cables USB </tspan></text>
    <g
       id="g925"
       style="stroke-width:0.000005;stroke-miterlimit:4;stroke-dasharray:none"
       transform="matrix(0.78673595,0,0,0.77160068,6.5833136e-4,43.853118)">
      <g
         id="g899"
         transform="matrix(-0.4079479,-0.4079479,0.4079479,-0.4079479,-78.324606,270.32983)"
         inkscape:transform-center-x="2.0390349e-05"
         inkscape:transform-center-y="1.5002937e-05"
         style="stroke-width:0.00000867;stroke-miterlimit:4;stroke-dasharray:none">
        <rect
           y="192.00456"
           x="0.00315"
           height="0.00049289159"
           width="0.00050000002"
           id="rect893"
           style="opacity:1;fill:#ffffff;fill-opacity:1;fill-rule:evenodd;stroke:#000000;stroke-width:0.00000867;stroke-miterlimit:4;stroke-dasharray:none;stroke-dashoffset:0;stroke-opacity:1" />
        <circle
           r="0.000225"
           cy="192.00481"
           cx="0.0033964287"
           id="circle895"
           style="opacity:1;fill:#ffffff;fill-opacity:1;fill-rule:evenodd;stroke:#000000;stroke-width:0.00000867;stroke-miterlimit:4;stroke-dasharray:none;stroke-dashoffset:0;stroke-opacity:1" />
        <circle
           r="7.9464284e-05"
           cy="192.00481"
           cx="0.0033978573"
           id="circle897"
           style="opacity:1;fill:#ffffff;fill-opacity:1;fill-rule:evenodd;stroke:#000000;stroke-width:0.00000867;stroke-miterlimit:4;stroke-dasharray:none;stroke-dashoffset:0;stroke-opacity:1" />
      </g>
      <g
         inkscape:transform-center-y="1.5002937e-05"
         inkscape:transform-center-x="2.0390349e-05"
         transform="matrix(-0.4079479,-0.4079479,0.4079479,-0.4079479,-78.321286,270.32983)"
         id="g907"
         style="stroke-width:0.00000867;stroke-miterlimit:4;stroke-dasharray:none">
        <rect
           style="opacity:1;fill:#ffffff;fill-opacity:1;fill-rule:evenodd;stroke:#000000;stroke-width:0.00000867;stroke-miterlimit:4;stroke-dasharray:none;stroke-dashoffset:0;stroke-opacity:1"
           id="rect901"
           width="0.00050000002"
           height="0.00049289159"
           x="0.00315"
           y="192.00456" />
        <circle
           style="opacity:1;fill:#ffffff;fill-opacity:1;fill-rule:evenodd;stroke:#000000;stroke-width:0.00000867;stroke-miterlimit:4;stroke-dasharray:none;stroke-dashoffset:0;stroke-opacity:1"
           id="circle903"
           cx="0.0033964287"
           cy="192.00481"
           r="0.000225" />
        <circle
           style="opacity:1;fill:#ffffff;fill-opacity:1;fill-rule:evenodd;stroke:#000000;stroke-width:0.00000867;stroke-miterlimit:4;stroke-dasharray:none;stroke-dashoffset:0;stroke-opacity:1"
           id="circle905"
           cx="0.0033978573"
           cy="192.00481"
           r="7.9464284e-05" />
      </g>
      <g
         id="g891"
         transform="matrix(-0.4079479,-0.4079479,0.4079479,-0.4079479,-78.321286,270.33315)"
         inkscape:transform-center-x="2.0390349e-05"
         inkscape:transform-center-y="1.5002937e-05"
         style="stroke-width:0.00000867;stroke-miterlimit:4;stroke-dasharray:none">
        <rect
           y="192.00456"
           x="0.00315"
           height="0.00049289159"
           width="0.00050000002"
           id="rect885"
           style="opacity:1;fill:#ffffff;fill-opacity:1;fill-rule:evenodd;stroke:#000000;stroke-width:0.00000867;stroke-miterlimit:4;stroke-dasharray:none;stroke-dashoffset:0;stroke-opacity:1" />
        <circle
           r="0.000225"
           cy="192.00481"
           cx="0.0033964287"
           id="circle887"
           style="opacity:1;fill:#ffffff;fill-opacity:1;fill-rule:evenodd;stroke:#000000;stroke-width:0.00000867;stroke-miterlimit:4;stroke-dasharray:none;stroke-dashoffset:0;stroke-opacity:1" />
        <circle
           r="7.9464284e-05"
           cy="192.00481"
           cx="0.0033978573"
           id="circle889"
           style="opacity:1;fill:#ffffff;fill-opacity:1;fill-rule:evenodd;stroke:#000000;stroke-width:0.00000867;stroke-miterlimit:4;stroke-dasharray:none;stroke-dashoffset:0;stroke-opacity:1" />
      </g>
      <g
         inkscape:transform-center-y="1.5002937e-05"
         inkscape:transform-center-x="2.0390349e-05"
         transform="matrix(-0.4079479,-0.4079479,0.4079479,-0.4079479,-78.324606,270.33315)"
         id="g851"
         style="stroke-width:0.00000867;stroke-miterlimit:4;stroke-dasharray:none">
        <rect
           style="opacity:1;fill:#ffffff;fill-opacity:1;fill-rule:evenodd;stroke:#000000;stroke-width:0.00000867;stroke-miterlimit:4;stroke-dasharray:none;stroke-dashoffset:0;stroke-opacity:1"
           id="rect829"
           width="0.00050000002"
           height="0.00049289159"
           x="0.00315"
           y="192.00456" />
        <circle
           style="opacity:1;fill:#ffffff;fill-opacity:1;fill-rule:evenodd;stroke:#000000;stroke-width:0.00000867;stroke-miterlimit:4;stroke-dasharray:none;stroke-dashoffset:0;stroke-opacity:1"
           id="path831"
           cx="0.0033964287"
           cy="192.00481"
           r="0.000225" />
        <circle
           style="opacity:1;fill:#ffffff;fill-opacity:1;fill-rule:evenodd;stroke:#000000;stroke-width:0.00000867;stroke-miterlimit:4;stroke-dasharray:none;stroke-dashoffset:0;stroke-opacity:1"
           id="path831-3"
           cx="0.0033978573"
           cy="192.00481"
           r="7.9464284e-05" />
      </g>
    </g>
  </g>
  <g
     inkscape:groupmode="layer"
     id="layer2"
     inkscape:label="system"
     style="display:inline">
    <g
       transform="matrix(0.78673595,0,0,0.77160068,6.5833136e-4,-148.14674)"
       style="display:inline;opacity:0.36300001"
       id="g1526">
      <text
         xml:space="preserve"
         style="font-style:normal;font-weight:normal;font-size:0.00008px;line-height:1.25;font-family:sans-serif;letter-spacing:0px;word-spacing:0px;fill:#000000;fill-opacity:1;stroke:none;stroke-width:0.000005;stroke-miterlimit:4;stroke-dasharray:none"
         x="0.00096574286"
         y="192.00212"
         id="text1070-2"><tspan
           sodipodi:role="line"
           id="tspan1068-2"
           x="0.00096574286"
           y="192.00212"
           style="stroke-width:0.000005;stroke-miterlimit:4;stroke-dasharray:none">orbite B</tspan></text>
      <text
         id="text1486"
         y="192.00232"
         x="0.00096574286"
         style="font-style:normal;font-weight:normal;font-size:0.00008px;line-height:1.25;font-family:sans-serif;letter-spacing:0px;word-spacing:0px;fill:#000000;fill-opacity:1;stroke:none;stroke-width:0.000005;stroke-miterlimit:4;stroke-dasharray:none"
         xml:space="preserve"><tspan
           style="stroke-width:0.000005;stroke-miterlimit:4;stroke-dasharray:none"
           y="192.00232"
           x="0.00096574286"
           id="tspan1484"
           sodipodi:role="line">orbite C</tspan></text>
      <text
         xml:space="preserve"
         style="font-style:normal;font-weight:normal;font-size:0.00008px;line-height:1.25;font-family:sans-serif;letter-spacing:0px;word-spacing:0px;fill:#000000;fill-opacity:1;stroke:none;stroke-width:0.000005;stroke-miterlimit:4;stroke-dasharray:none"
         x="0.00096574286"
         y="192.00252"
         id="text1490"><tspan
           sodipodi:role="line"
           id="tspan1488"
           x="0.00096574286"
           y="192.00252"
           style="stroke-width:0.000005;stroke-miterlimit:4;stroke-dasharray:none">étoile A</tspan></text>
      <text
         id="text1494"
         y="192.00272"
         x="0.00096574286"
         style="font-style:normal;font-weight:normal;font-size:0.00008px;line-height:1.25;font-family:sans-serif;letter-spacing:0px;word-spacing:0px;fill:#000000;fill-opacity:1;stroke:none;stroke-width:0.000005;stroke-miterlimit:4;stroke-dasharray:none"
         xml:space="preserve"><tspan
           style="stroke-width:0.000005;stroke-miterlimit:4;stroke-dasharray:none"
           y="192.00272"
           x="0.00096574286"
           id="tspan1492"
           sodipodi:role="line">planète B</tspan></text>
      <text
         xml:space="preserve"
         style="font-style:normal;font-weight:normal;font-size:0.00008px;line-height:1.25;font-family:sans-serif;letter-spacing:0px;word-spacing:0px;fill:#000000;fill-opacity:1;stroke:none;stroke-width:0.000005;stroke-miterlimit:4;stroke-dasharray:none"
         x="0.00096574286"
         y="192.00291"
         id="text1498"><tspan
           sodipodi:role="line"
           id="tspan1496"
           x="0.00096574286"
           y="192.00291"
           style="stroke-width:0.000005;stroke-miterlimit:4;stroke-dasharray:none">planète C</tspan></text>
    </g>
    <g
       style="display:inline;opacity:0.36300001"
       id="g1560"
       transform="matrix(0.78673595,0,0,0.77160068,6.5564072e-4,-148.14673)">
      <path
         inkscape:connector-curvature="0"
         id="path1506"
         d="m 0.00131157,192.00208 h 4.1436e-4"
         style="fill:none;stroke:#000000;stroke-width:0.00001025px;stroke-linecap:butt;stroke-linejoin:miter;stroke-miterlimit:4;stroke-dasharray:none;stroke-opacity:1" />
      <path
         inkscape:connector-curvature="0"
         id="path1508"
         d="m 0.00131157,192.00228 h 8.7686e-4"
         style="fill:none;stroke:#000000;stroke-width:0.00001px;stroke-linecap:butt;stroke-linejoin:miter;stroke-miterlimit:4;stroke-dasharray:none;stroke-opacity:1" />
      <path
         inkscape:connector-curvature="0"
         id="path1510"
         d="M 0.00130988,192.00248 H 0.00332489"
         style="fill:none;stroke:#000000;stroke-width:0.00001px;stroke-linecap:butt;stroke-linejoin:miter;stroke-miterlimit:4;stroke-dasharray:none;stroke-opacity:1" />
      <path
         inkscape:connector-curvature="0"
         id="path1512"
         d="m 0.00139092,192.00267 h 8.8001e-4"
         style="fill:none;stroke:#000000;stroke-width:0.00001px;stroke-linecap:butt;stroke-linejoin:miter;stroke-miterlimit:4;stroke-dasharray:none;stroke-opacity:1" />
      <path
         inkscape:connector-curvature="0"
         id="path1514"
         d="m 0.00139092,192.00287 h 4.3751e-4"
         style="fill:none;stroke:#000000;stroke-width:0.00001px;stroke-linecap:butt;stroke-linejoin:miter;stroke-miterlimit:4;stroke-dasharray:none;stroke-opacity:1" />
    </g>
    <g
       id="g1610"
       style="opacity:0.36300001;stroke-width:0.00000566;stroke-miterlimit:4;stroke-dasharray:none"
       transform="matrix(0.78673595,0,0,0.77160068,6.5833136e-4,5.8844759e-4)">
      <circle
         r="0.0019183218"
         cy="192.002"
         cx="0.003629989"
         id="path1309-5"
         style="display:inline;opacity:1;fill:none;fill-opacity:1;fill-rule:evenodd;stroke:#000000;stroke-width:0.00000566;stroke-miterlimit:4;stroke-dasharray:none;stroke-dashoffset:0.0000088;stroke-opacity:1"
         transform="translate(0,-192)" />
      <circle
         r="0.0014821665"
         cy="192.002"
         cx="0.0036305981"
         id="path1309"
         style="display:inline;opacity:1;fill:none;fill-opacity:1;fill-rule:evenodd;stroke:#000000;stroke-width:0.00000566;stroke-miterlimit:4;stroke-dasharray:none;stroke-dashoffset:0.0000088;stroke-opacity:1"
         transform="translate(0,-192)" />
    </g>
    <g
       transform="matrix(0.78673595,0,0,0.77160068,6.5833136e-4,-148.14674)"
       id="g1339"
       style="display:inline;opacity:0.36300001;fill:none;stroke:#000000;stroke-width:0.000005;stroke-miterlimit:4;stroke-dasharray:none;stroke-opacity:1">
      <circle
         style="opacity:1;fill:#ffe680;fill-opacity:1;fill-rule:evenodd;stroke:#000000;stroke-width:0.000005;stroke-miterlimit:4;stroke-dasharray:none;stroke-dashoffset:0;stroke-opacity:1"
         id="circle929"
         cx="0.0036177444"
         cy="192.002"
         r="0.00057577586" />
      <circle
         style="opacity:1;fill:#71c837;fill-opacity:1;fill-rule:evenodd;stroke:#000000;stroke-width:0.000005;stroke-miterlimit:4;stroke-dasharray:none;stroke-dashoffset:0;stroke-opacity:1"
         id="circle1311"
         cx="0.0023200538"
         cy="192.00269"
         r="5.5825592e-05" />
      <circle
         r="8.9285721e-05"
         cy="192.00287"
         cx="0.0019156567"
         id="path927"
         style="opacity:1;fill:#71c837;fill-opacity:1;fill-rule:evenodd;stroke:#000000;stroke-width:0.000005;stroke-miterlimit:4;stroke-dasharray:none;stroke-dashoffset:0;stroke-opacity:1" />
    </g>
    <text
       xml:space="preserve"
       style="font-style:normal;font-weight:normal;font-size:0.00008px;line-height:1.25;font-family:sans-serif;letter-spacing:0px;word-spacing:0px;fill:#000000;fill-opacity:1;stroke:none;stroke-width:0.00001"
       x="0.00050204579"
       y="0.00034811729"
       id="text1633"><tspan
         sodipodi:role="line"
         id="tspan1631"
         x="0.00050204579"
         y="0.00034811729"
         style="font-size:0.00010667px;stroke-width:0.00001">Dispositif audio et représentation de la spatialisation sonore d'un système exo-planétaire</tspan></text>
  </g>
</svg>
